{
	"info": {
		"_postman_id": "7032f28c-3fac-42b2-ac5b-c50de63bfad5",
		"name": "APIPelamarRuby",
		"schema": "https://schema.getpostman.com/json/collection/v2.1.0/collection.json"
	},
	"item": [
		{
			"name": "POST Login",
			"request": {
				"method": "POST",
				"header": [],
				"body": {
					"mode": "raw",
					"raw": "{\r\n    \"username\": \"permadi\",\r\n    \"password\": \"permadi\"\r\n}",
					"options": {
						"raw": {
							"language": "json"
						}
					}
				},
				"url": {
					"raw": "localhost:3000/login",
					"host": [
						"localhost"
					],
					"port": "3000",
					"path": [
						"login"
					]
				}
			},
			"response": []
		},
		{
			"name": "GET All User",
			"request": {
				"method": "GET",
				"header": [],
				"url": {
					"raw": "localhost:3000/users",
					"host": [
						"localhost"
					],
					"port": "3000",
					"path": [
						"users"
					]
				}
			},
			"response": []
		},
		{
			"name": "GET User By ID",
			"request": {
				"auth": {
					"type": "bearer",
					"bearer": [
						{
							"key": "token",
							"value": "eyJhbGciOiJIUzI1NiJ9.eyJ1c2VyX2lkIjoxLCJleHAiOjE2MTY0NzQ2MjV9.MsGajOKvsAnIOXC3GICeR4bjMF-oBR-Mxejnz8DCJl4",
							"type": "string"
						}
					]
				},
				"method": "GET",
				"header": [],
				"url": {
					"raw": "localhost:3000/users/1",
					"host": [
						"localhost"
					],
					"port": "3000",
					"path": [
						"users",
						"1"
					]
				}
			},
			"response": []
		},
		{
			"name": "POST User",
			"request": {
				"method": "POST",
				"header": [],
				"body": {
					"mode": "raw",
					"raw": "{\r\n    \"username\": \"permadi\",\r\n    \"password\": \"permadi\",\r\n    \"nama\": \"Permadi Eka Permana\"\r\n}",
					"options": {
						"raw": {
							"language": "json"
						}
					}
				},
				"url": {
					"raw": "localhost:3000/users",
					"host": [
						"localhost"
					],
					"port": "3000",
					"path": [
						"users"
					]
				}
			},
			"response": []
		},
		{
			"name": "UPDATE User",
			"request": {
				"method": "PUT",
				"header": [],
				"body": {
					"mode": "raw",
					"raw": "{\r\n    \"username\": \"pep2\",\r\n    \"nama\": \"pep2\"\r\n}",
					"options": {
						"raw": {
							"language": "json"
						}
					}
				},
				"url": {
					"raw": "localhost:3000/users/2",
					"host": [
						"localhost"
					],
					"port": "3000",
					"path": [
						"users",
						"2"
					]
				}
			},
			"response": []
		},
		{
			"name": "DELETE User",
			"request": {
				"method": "DELETE",
				"header": [],
				"url": {
					"raw": "localhost:3000/users",
					"host": [
						"localhost"
					],
					"port": "3000",
					"path": [
						"users"
					]
				}
			},
			"response": []
		},
		{
			"name": "GET All Posisi",
			"request": {
				"auth": {
					"type": "bearer",
					"bearer": [
						{
							"key": "token",
							"value": "eyJhbGciOiJIUzI1NiJ9.eyJ1c2VyX2lkIjoxLCJleHAiOjE2MTYxNDM2NTR9.wglci9ZpVGxeN23gcKurc9h_R0Sgm3ZVZJBbwMFT3II",
							"type": "string"
						}
					]
				},
				"method": "GET",
				"header": [],
				"url": {
					"raw": "localhost:3000/posisi",
					"host": [
						"localhost"
					],
					"port": "3000",
					"path": [
						"posisi"
					]
				}
			},
			"response": []
		},
		{
			"name": "GET Posisi by ID",
			"request": {
				"method": "GET",
				"header": [],
				"url": {
					"raw": "localhost:3000/posisi/1",
					"host": [
						"localhost"
					],
					"port": "3000",
					"path": [
						"posisi",
						"1"
					]
				}
			},
			"response": []
		},
		{
			"name": "POST Posisi",
			"request": {
				"method": "POST",
				"header": [
					{
						"key": "agama",
						"value": "Katolik",
						"type": "text"
					}
				],
				"body": {
					"mode": "urlencoded",
					"urlencoded": [
						{
							"key": "nama_posisi",
							"value": "Programmer",
							"type": "text"
						}
					]
				},
				"url": {
					"raw": "localhost:3000/posisi",
					"host": [
						"localhost"
					],
					"port": "3000",
					"path": [
						"posisi"
					]
				}
			},
			"response": []
		},
		{
			"name": "UPDATE Posisi",
			"request": {
				"method": "PUT",
				"header": [],
				"body": {
					"mode": "urlencoded",
					"urlencoded": [
						{
							"key": "nama_posisi",
							"value": "Programmer",
							"type": "text"
						}
					]
				},
				"url": {
					"raw": "localhost:3000/posisi/2",
					"host": [
						"localhost"
					],
					"port": "3000",
					"path": [
						"posisi",
						"2"
					]
				}
			},
			"response": []
		},
		{
			"name": "DELETE Posisi",
			"request": {
				"method": "DELETE",
				"header": [],
				"url": {
					"raw": "localhost:3000/posisi/3",
					"host": [
						"localhost"
					],
					"port": "3000",
					"path": [
						"posisi",
						"3"
					]
				}
			},
			"response": []
		},
		{
			"name": "GET Status",
			"request": {
				"auth": {
					"type": "bearer",
					"bearer": [
						{
							"key": "token",
							"value": "eyJhbGciOiJIUzI1NiJ9.eyJ1c2VyX2lkIjoxLCJleHAiOjE2MTY1NzUwMTh9.X-imInC-ST-BJo789KMWblXjJWxl5-QvbBwLR7y5r84",
							"type": "string"
						}
					]
				},
				"method": "GET",
				"header": [],
				"url": {
					"raw": "localhost:3000/status",
					"host": [
						"localhost"
					],
					"port": "3000",
					"path": [
						"status"
					]
				}
			},
			"response": []
		},
		{
			"name": "GET Status Progress",
			"request": {
				"auth": {
					"type": "bearer",
					"bearer": [
						{
							"key": "token",
							"value": "eyJhbGciOiJIUzI1NiJ9.eyJ1c2VyX2lkIjoxLCJleHAiOjE2MTY1NzUwMTh9.X-imInC-ST-BJo789KMWblXjJWxl5-QvbBwLR7y5r84",
							"type": "string"
						}
					]
				},
				"method": "GET",
				"header": [],
				"url": {
					"raw": "localhost:3000/status_progress",
					"host": [
						"localhost"
					],
					"port": "3000",
					"path": [
						"status_progress"
					]
				}
			},
			"response": []
		},
		{
			"name": "GET Status by ID",
			"request": {
				"method": "GET",
				"header": [],
				"url": {
					"raw": "localhost:3000/status/1",
					"host": [
						"localhost"
					],
					"port": "3000",
					"path": [
						"status",
						"1"
					]
				}
			},
			"response": []
		},
		{
			"name": "POST Status",
			"request": {
				"auth": {
					"type": "bearer",
					"bearer": [
						{
							"key": "token",
							"value": "eyJhbGciOiJIUzI1NiJ9.eyJ1c2VyX2lkIjoxLCJleHAiOjE2MTY1NzUwMTh9.X-imInC-ST-BJo789KMWblXjJWxl5-QvbBwLR7y5r84",
							"type": "string"
						}
					]
				},
				"method": "POST",
				"header": [],
				"body": {
					"mode": "urlencoded",
					"urlencoded": [
						{
							"key": "nama_status",
							"value": "test",
							"type": "text"
						},
						{
							"key": "jenis_status",
							"value": "test",
							"type": "text"
						}
					]
				},
				"url": {
					"raw": "localhost:3000/status",
					"host": [
						"localhost"
					],
					"port": "3000",
					"path": [
						"status"
					]
				}
			},
			"response": []
		},
		{
			"name": "UPDATE Status",
			"request": {
				"method": "GET",
				"header": [],
				"url": {
					"raw": "localhost:3000/status/1",
					"host": [
						"localhost"
					],
					"port": "3000",
					"path": [
						"status",
						"1"
					]
				}
			},
			"response": []
		},
		{
			"name": "DELETE Status",
			"request": {
				"auth": {
					"type": "bearer",
					"bearer": [
						{
							"key": "token",
							"value": "eyJhbGciOiJIUzI1NiJ9.eyJ1c2VyX2lkIjoxLCJleHAiOjE2MTY1NzUwMTh9.X-imInC-ST-BJo789KMWblXjJWxl5-QvbBwLR7y5r84",
							"type": "string"
						}
					]
				},
				"method": "DELETE",
				"header": [],
				"url": {
					"raw": "localhost:3000/status/12",
					"host": [
						"localhost"
					],
					"port": "3000",
					"path": [
						"status",
						"12"
					]
				}
			},
			"response": []
		},
		{
			"name": "GET Pelamar",
			"request": {
				"auth": {
					"type": "bearer",
					"bearer": [
						{
							"key": "token",
							"value": "eyJhbGciOiJIUzI1NiJ9.eyJ1c2VyX2lkIjoxLCJleHAiOjE2MTY1ODA3NTd9.DSpFIRu5GZoVa8mHVHQZkYAECTKpSWd2ZXGhzmj7O8Y",
							"type": "string"
						}
					]
				},
				"method": "GET",
				"header": [],
				"url": {
					"raw": "http://localhost:3000/pelamar_gagal",
					"protocol": "http",
					"host": [
						"localhost"
					],
					"port": "3000",
					"path": [
						"pelamar_gagal"
					],
					"query": [
						{
							"key": "id_posisi",
							"value": "2",
							"disabled": true
						},
						{
							"key": "id_status",
							"value": "",
							"disabled": true
						}
					]
				}
			},
			"response": []
		},
		{
			"name": "POST Pelamar",
			"request": {
				"auth": {
					"type": "bearer",
					"bearer": [
						{
							"key": "token",
							"value": "eyJhbGciOiJIUzI1NiJ9.eyJ1c2VyX2lkIjoxLCJleHAiOjE2MTYxNDM2NTR9.wglci9ZpVGxeN23gcKurc9h_R0Sgm3ZVZJBbwMFT3II",
							"type": "string"
						}
					]
				},
				"method": "POST",
				"header": [],
				"body": {
					"mode": "urlencoded",
					"urlencoded": [
						{
							"key": "nama_pelamar",
							"value": "Abdul Fattah",
							"type": "text"
						},
						{
							"key": "no_hp",
							"value": "08xxxxxxxxxx",
							"type": "text"
						},
						{
							"key": "email",
							"value": "fattah@gmail.com",
							"type": "text"
						},
						{
							"key": "asal_instansi",
							"value": "Unpad",
							"type": "text"
						},
						{
							"key": "jurusan",
							"value": "Teknik Informatika",
							"type": "text"
						},
						{
							"key": "grade",
							"value": "S1",
							"type": "text"
						},
						{
							"key": "cv",
							"value": "fattah.pdf",
							"type": "text"
						},
						{
							"key": "id_posisi",
							"value": "1",
							"type": "text"
						},
						{
							"key": "id_status",
							"value": "1",
							"type": "text"
						}
					]
				},
				"url": {
					"raw": "localhost:3000/pelamar",
					"host": [
						"localhost"
					],
					"port": "3000",
					"path": [
						"pelamar"
					]
				}
			},
			"response": []
		},
		{
			"name": "POST Hasil Test",
			"request": {
				"auth": {
					"type": "bearer",
					"bearer": [
						{
							"key": "token",
							"value": "eyJhbGciOiJIUzI1NiJ9.eyJ1c2VyX2lkIjoxLCJleHAiOjE2MTYyMzI2NTB9.haTQ26AGwCh_JXJt1tocma7f8jWtREwjpqq3f-1J9fw",
							"type": "string"
						}
					]
				},
				"method": "POST",
				"header": [],
				"body": {
					"mode": "urlencoded",
					"urlencoded": [
						{
							"key": "nama_test",
							"value": "test",
							"type": "text"
						},
						{
							"key": "nilai",
							"value": "80",
							"type": "text"
						},
						{
							"key": "id_pelamar",
							"value": "1",
							"type": "text"
						}
					]
				},
				"url": {
					"raw": "localhost:3000/hasiltest",
					"host": [
						"localhost"
					],
					"port": "3000",
					"path": [
						"hasiltest"
					]
				}
			},
			"response": []
		},
		{
			"name": "UPDATE Hasil Test",
			"request": {
				"auth": {
					"type": "bearer",
					"bearer": [
						{
							"key": "token",
							"value": "eyJhbGciOiJIUzI1NiJ9.eyJ1c2VyX2lkIjoxLCJleHAiOjE2MTY0NzQ2MjV9.MsGajOKvsAnIOXC3GICeR4bjMF-oBR-Mxejnz8DCJl4",
							"type": "string"
						}
					]
				},
				"method": "PUT",
				"header": [],
				"body": {
					"mode": "urlencoded",
					"urlencoded": [
						{
							"key": "id_pelamar",
							"value": "4",
							"type": "text"
						},
						{
							"key": "nama_test",
							"value": "Logic",
							"type": "text"
						}
					]
				},
				"url": {
					"raw": "localhost:3000/hasiltest/5",
					"host": [
						"localhost"
					],
					"port": "3000",
					"path": [
						"hasiltest",
						"5"
					]
				}
			},
			"response": []
		},
		{
			"name": "GET Status Lolos",
			"request": {
				"auth": {
					"type": "bearer",
					"bearer": [
						{
							"key": "token",
							"value": "eyJhbGciOiJIUzI1NiJ9.eyJ1c2VyX2lkIjoxLCJleHAiOjE2MTY1NzUwMTh9.X-imInC-ST-BJo789KMWblXjJWxl5-QvbBwLR7y5r84",
							"type": "string"
						}
					]
				},
				"method": "GET",
				"header": [],
				"url": {
					"raw": "localhost:3000/status_lolos",
					"host": [
						"localhost"
					],
					"port": "3000",
					"path": [
						"status_lolos"
					]
				}
			},
			"response": []
		}
	]
}